…
## github repo tags

Which of the versions above has a corresponding tag on github? First
we get all the tags in the github repo:


```r
dt.dir <- file.path(R.dir, "data.table")
(tag.tib <- gert::git_tag_list(repo=dt.dir))
```

```
## # A tibble: 61 × 3
##    name   ref              commit                                  
##  * <chr>  <chr>            <chr>                                   
##  1 1.10.0 refs/tags/1.10.0 81cf17e3c28d22dad818db22dafea3f7a830be2d
##  2 1.10.2 refs/tags/1.10.2 b40ec30b61a54040acfcd6ce62b17b43ca8cb272
##  3 1.10.4 refs/tags/1.10.4 8b201fd28f5d4afcc4be026a5d9eb4bb6dd62955
##  4 1.11.0 refs/tags/1.11.0 d59c486d80b1afb57fa898755f04b5f0809cb07f
##  5 1.11.2 refs/tags/1.11.2 18ebbf60f3f8d1d136bfccc53b993003eb757608
##  6 1.11.4 refs/tags/1.11.4 06d055b7295838925890a958c30eb76be9510895
##  7 1.11.6 refs/tags/1.11.6 a4e26b50beaf0bb2aac40bbf47f9d1745579154a
##  8 1.11.8 refs/tags/1.11.8 76bb569fd7736b5f89471a35357e6a971ae1d424
##  9 1.12.0 refs/tags/1.12.0 34796cd1524828df9bf13a174265cb68a09fcd77
## 10 1.12.2 refs/tags/1.12.2 86034855f9b305e948d83014af89352fc42e27f2
## # ℹ 51 more rows
```
…
