…
``` r
tibble::tibble(plus.dt[
, n.alias := sapply(alias.list, length)
]) # for nice print.
```

```
## # A tibble: 103 × 5
##    name                                                                               country aliases alias.list n.alias
##    <chr>                                                                              <chr>   <chr>   <list>       <int>
##  1 A.A. Kharkevich Institute for Information Transmission Problems, IITP, Russian Ac… Russia  ""      <chr [0]>        0
##  2 Academy of Military Medical Sciences                                               People… "AMMS"  <chr [1]>        1
##  3 Academy of Military Science                                                        People… "AMS"   <chr [1]>        1
##  4 Aerospace Research Institute                                                       Iran    "ARI"   <chr [1]>        1
##  5 Air Force Medical University                                                       People… "Air F… <chr [4]>        4
##  6 Air Force Research Institute                                                       People… "Air F… <chr [2]>        2
##  7 Air Force Xi’an Flight Academy                                                     People… "PLA A… <chr [3]>        3
##  8 Airforce Command College                                                           People… "PLA A… <chr [4]>        4
##  9 Airforce Communication NCO Academy                                                 People… "Dalia… <chr [1]>        1
## 10 Airforce Early Warning Academy                                                     People… "Wuhan… <chr [1]>        1
## # ℹ 93 more rows
```
…
